%YAML 1.1
%TAG !u! tag:unity3d.com,2011:
--- !u!114 &11400000
MonoBehaviour:
  m_ObjectHideFlags: 0
  m_CorrespondingSourceObject: {fileID: 0}
  m_PrefabInstance: {fileID: 0}
  m_PrefabAsset: {fileID: 0}
  m_GameObject: {fileID: 0}
  m_Enabled: 1
  m_EditorHideFlags: 0
  m_Script: {fileID: 11500000, guid: 91f83a37ece0442baab712eb5dabf4fd, type: 3}
  m_Name: GemDatabase
  m_EditorClassIdentifier: 
  _gemPrefab: {fileID: 606595287293124590, guid: 76d346c5ea6ee27fe98ffe360f48ae19, type: 3}
  _gemDataList:
  - color: {r: 0, g: 1, b: 0.12156863, a: 1}
    sprite: {fileID: 21300000, guid: f958864b6ee3092138f83f57f0058fff, type: 3}
    gemType: 4
  - color: {r: 0.8039216, g: 0.24313726, b: 0.24313726, a: 1}
    sprite: {fileID: 21300000, guid: 785117e0e61ddf1f3b659dae54851788, type: 3}
    gemType: 0
  - color: {r: 0.20784314, g: 0.6666667, b: 0.7176471, a: 1}
    sprite: {fileID: 21300000, guid: 292665b66eb0360559a658983cf405ec, type: 3}
    gemType: 3
  - color: {r: 0.5764706, g: 0.24313726, b: 0.5294118, a: 1}
    sprite: {fileID: 21300000, guid: 6d75b90be3bcad1d58da81bf17830bd0, type: 3}
    gemType: 2
  - color: {r: 0.7647059, g: 0.5411765, b: 0.15294118, a: 1}
    sprite: {fileID: 21300000, guid: d0c07a084f43b729aa2a1bbf180c5a01, type: 3}
    gemType: 1
